[gd_scene load_steps=8 format=2]

[ext_resource path="res://projectile/path_arc.gd" type="Script" id=1]
[ext_resource path="res://node/projectile/projectile.tscn" type="PackedScene" id=2]
[ext_resource path="res://atlas/atlas_pumpkid.tres" type="Texture" id=3]
[ext_resource path="res://animation/pumpkid_fireball_spin.tres" type="Animation" id=4]
[ext_resource path="res://node/component/is_reflectable.gd" type="Script" id=5]
[ext_resource path="res://node/hitbox/hitbox.tscn" type="PackedScene" id=6]
[ext_resource path="res://projectile/path_straight.gd" type="Script" id=7]

[node name="pumpkid_fireball" instance=ExtResource( 2 )]
gravity = 500.0
launch_speed = 200.0

[node name="sprite" parent="." index="1"]
texture = ExtResource( 3 )
vframes = 4
hframes = 4
frame = 3

[node name="animator" parent="." index="2"]
autoplay = "fireball_spin"
anims/fireball_spin = ExtResource( 4 )

[node name="hitbox" parent="." index="4"]
scale = Vector2( 4, 4 )
tag = 4
damage = 3

[node name="hurtbox" parent="." index="5" instance=ExtResource( 6 )]
scale = Vector2( 5, 5 )
type = 1
damage = 0
knockback_speed = 0.0
knockback_angle = 0.0

[node name="path_arc" type="Node" parent="." index="6"]
script = ExtResource( 1 )

[node name="path_straight" type="Node" parent="." index="7"]
script = ExtResource( 7 )

[node name="is_reflectable" type="Node" parent="." index="8"]
script = ExtResource( 5 )
