[gd_scene load_steps=7 format=2]

[ext_resource path="res://texture/sheet_candy.png" type="Texture" id=1]
[ext_resource path="res://node/actor/actor.tscn" type="PackedScene" id=2]
[ext_resource path="res://animation/health_pickup_blink.tres" type="Animation" id=3]
[ext_resource path="res://node/hitbox/hitbox.tscn" type="PackedScene" id=4]
[ext_resource path="res://pickup/health_pickup.gd" type="Script" id=5]

[sub_resource type="AtlasTexture" id=1]
atlas = ExtResource( 1 )
region = Rect2( 0, 0, 32, 32 )

[node name="health_pickup" instance=ExtResource( 2 )]
script = ExtResource( 5 )

[node name="cs2d" parent="." index="0"]
position = Vector2( 0, -3 )
scale = Vector2( 3, 3 )

[node name="sprite" parent="." index="1"]
texture = SubResource( 1 )
offset = Vector2( 0, -8 )
frame = 0

[node name="animator" parent="." index="2"]
autoplay = "blink"
anims/blink = ExtResource( 3 )

[node name="tag" parent="." index="3"]
tags = PoolStringArray( "health_pickup" )

[node name="hitbox" parent="." index="4" instance=ExtResource( 4 )]
position = Vector2( 0, -7 )
scale = Vector2( 5, 5 )
tag = 6
damage = 4
knockback_speed = 0.0
knockback_angle = 0.0
knockback_stop = false
