[gd_resource type="Animation" format=2]

[resource]
resource_name = "fireball_spin"
length = 16.0
loop = true
step = 1.0
tracks/0/type = "value"
tracks/0/path = NodePath("sprite:rotation_degrees")
tracks/0/interp = 1
tracks/0/loop_wrap = true
tracks/0/imported = false
tracks/0/enabled = true
tracks/0/keys = {
"times": PoolRealArray( 0, 4, 8, 12 ),
"transitions": PoolRealArray( 0, 0, 0, 0 ),
"update": 0,
"values": [ 0.0, 90.0, 180.0, 270.0 ]
}
