[gd_resource type="Animation" format=2]

[resource]
resource_name = "off"
length = 20.0
step = 1.0
tracks/0/type = "value"
tracks/0/path = NodePath("sprite:frame")
tracks/0/interp = 1
tracks/0/loop_wrap = true
tracks/0/imported = false
tracks/0/enabled = true
tracks/0/keys = {
"times": PoolRealArray( 0 ),
"transitions": PoolRealArray( 1 ),
"update": 1,
"values": [ 0 ]
}
tracks/1/type = "value"
tracks/1/path = NodePath("sprite:position")
tracks/1/interp = 1
tracks/1/loop_wrap = true
tracks/1/imported = false
tracks/1/enabled = true
tracks/1/keys = {
"times": PoolRealArray( 0, 4, 8, 12, 16, 20 ),
"transitions": PoolRealArray( -2, -2, -2, -2, -2, 1 ),
"update": 0,
"values": [ Vector2( -4, 0 ), Vector2( 4, 0 ), Vector2( -3, 0 ), Vector2( 3, 0 ), Vector2( -1, 0 ), Vector2( 0, 0 ) ]
}
