[gd_resource type="AtlasTexture" load_steps=2 format=2]

[ext_resource path="res://texture/sheet_red_witch.png" type="Texture" id=1]

[resource]
atlas = ExtResource( 1 )
region = Rect2( 0, 0, 64, 64 )
